{
  "Document": {
    "CstmrPmtStsRpt": {
      "GrpHdr": {
        "CreDtTm": "2020-09-19T14:04:19",
        "InitgPty": {
          "Id": {
            "OrgId": {
              "AnyBIC": "CIBCCAT0"
            }
          },
          "Nm": "CANADIAN IMPERIAL BANK OF COMMERCE"
        },
        "MsgId": "PSH19092020305539"
      },
      "OrgnlGrpInfAndSts": {
        "OrgnlMsgId": "BETH52BI5LKHH",
        "OrgnlMsgNmId": "Pain.001.001.05",
        "StsRsnInf": [
          {
            "AddtlInf": "File Rejected"
          }
        ],
        "GrpSts": "RJCT"
      },
      "OrgnlPmtInfAndSts": {
        "TxInfAndSts": {
          "TxSts": "RJCT",
          "StsRsnInf": {
            "Rsn": {
              "Cd": "NARR"
            },
            "AddtlInf": "Mandatory Field Missing"
          },
          "OrgnlEndToEndId": "79OBJDX2KK"
        },
        "OrgnlPmtInfId": "ACHRMTBATCH1",
        "PmtInfSts": "RJCT"
      }
    }
  }
}