{
  "Document": {
    "CstmrPmtStsRpt": {
      "GrpHdr": {
        "MsgId": "PSH29082020280925",
        "CreDtTm": "2020-08-29T15:05:20",
        "InitgPty": {
          "Nm": "CANADIAN IMPERIAL BANK OF COMMERCE",
          "Id": {
            "OrgId": {
              "AnyBIC": "CIBCCAT0"
            }
          }
        }
      },
      "OrgnlGrpInfAndSts": {
        "OrgnlMsgId": "BET78CDMS8A9P",
        "OrgnlMsgNmId": "Pain.001.001.05",
        "GrpSts": "RJCT",
        "StsRsnInf": [
          {
            "AddtlInf": "File Rejected"
          },
          {
            "Rsn": {
              "Cd": "AM19"
            },
            "AddtlInf": "(Document-GrpHdr-NbOfTxsSEC-NbOfTxs)-Number Of Transactions Invalid -GRPHDR"
          },
          {
            "Rsn": {
              "Cd": "NARR"
            },
            "AddtlInf": "Parsing Failed."
          }
        ]
      }
    }
  }
}