{
  "Document": {
    "CstmrPmtStsRpt": {
      "GrpHdr": {
        "MsgId": "PSH27082020277182",
        "CreDtTm": "2020-08-27T21:28:03",
        "InitgPty": {
          "Nm": "CANADIAN IMPERIAL BANK OF COMMERCE",
          "Id": {
            "OrgId": {
              "AnyBIC": "CIBCCAT0"
            }
          }
        }
      },
      "OrgnlGrpInfAndSts": {
        "OrgnlMsgId": "BETSX9YD5H81R",
        "OrgnlMsgNmId": "Pain.001.001.05",
        "GrpSts": "RJCT",
        "StsRsnInf": [
          {
            "AddtlInf": "File Rejected"
          },
          {
            "Rsn": {
              "Cd": "NARR"
            },
            "AddtlInf": "Parsing Failed."
          }
        ]
      },
      "OrgnlPmtInfAndSts": {
        "StsRsnInf": [
          {
            "Rsn": {
              "Cd": "AM17"
            },
            "AddtlInf": "(PmtInf-PmtInfSEC-CtrlSum)-Invalid Batch/Payment Control Sum"
          }
        ]
      }
    }
  }
}