{
  "Document": {
    "CstmrPmtStsRpt": {
      "GrpHdr": {
        "CreDtTm": "2020-08-29T13:28:21",
        "InitgPty": {
          "Id": {
            "OrgId": {
              "AnyBIC": "CIBCCAT0"
            }
          },
          "Nm": "CANADIAN IMPERIAL BANK OF COMMERCE"
        },
        "MsgId": "PSH29082020280660"
      },
      "OrgnlGrpInfAndSts": {
        "OrgnlMsgId": "BETKYJSBUF4RF",
        "OrgnlMsgNmId": "Pain.001.001.05",
        "StsRsnInf": [
          {
            "AddtlInf": "File Accepted"
          }
        ],
        "GrpSts": "ACCP"
      },
      "OrgnlPmtInfAndSts": {
        "TxInfAndSts": {
          "TxSts": "ACSP",
          "OrgnlEndToEndId": "KZIO18AESU"
        },
        "OrgnlPmtInfId": "ACHRMTBATCH1",
        "PmtInfSts": "ACSP"
      }
    }
  }
}