{
  "Document": {
    "CstmrPmtStsRpt": {
      "GrpHdr": {
        "MsgId": "PSH29082020280759",
        "CreDtTm": "2020-08-29T14:47:43",
        "InitgPty": {
          "Nm": "CANADIAN IMPERIAL BANK OF COMMERCE",
          "Id": {
            "OrgId": {
              "AnyBIC": "CIBCCAT0"
            }
          }
        }
      },
      "OrgnlGrpInfAndSts": {
        "OrgnlMsgId": "BETP45A03C0K8",
        "OrgnlMsgNmId": "Pain.001.001.05",
        "GrpSts": "RJCT",
        "StsRsnInf": [
          {
            "AddtlInf": "File Rejected"
          },
          {
            "Rsn": {
              "Cd": "NARR"
            },
            "AddtlInf": "(Document-SplmtryData-Envlp-Cnts-CustAuthMtd)-Invalid datatype"
          },
          {
            "Rsn": {
              "Cd": "NARR"
            },
            "AddtlInf": "Parsing Failed."
          }
        ]
      }
    }
  }
}