{
  "Document": {
    "CstmrPmtStsRpt": {
      "GrpHdr": {
        "MsgId": "PSH27082020277423",
        "CreDtTm": "2020-08-27T23:58:17",
        "InitgPty": {
          "Nm": "CANADIAN IMPERIAL BANK OF COMMERCE",
          "Id": {
            "OrgId": {
              "AnyBIC": "CIBCCAT0"
            }
          }
        }
      },
      "OrgnlGrpInfAndSts": {
        "OrgnlMsgId": "BETW5ND9S3IGQ",
        "OrgnlMsgNmId": "Pain.001.001.05",
        "GrpSts": "RJCT",
        "StsRsnInf": [
          {
            "AddtlInf": "File Rejected"
          },
          {
            "Rsn": {
              "Cd": "NARR"
            },
            "AddtlInf": "Parsing Failed."
          }
        ]
      },
      "TxInfAndSts": {
        "OrgnlEndToEndId": "9OZGYR3O21",
        "StsRsnInf": [
          {
            "Rsn": {
              "Cd": "NARR"
            },
            "AddtlInf": "(CdtTrfTxInf-SplmtryData-Envlp-Cnts-hashType)-Allowed Values"
          }
        ]
      }
    }
  }
}