{
  "Document": {
    "RsltnOfInvstgtn": {
      "Assgnmt": {
        "Id": "RSPN202410142001",
        "Assgne": {
          "Pty": {
            "Id": {
              "OrgId": {
                "Othr": {
                  "Id": "CIBCCATTXXX"
                }
              }
            }
          }
        }
      },
      "RslvdCase": {
        "Id": "CACNBETB3N6J",
        "Cretr": {
          "Pty": {
            "Id": {
              "OrgId": {
                "Othr": {
                  "Id": "CIBCCATTXXX"
                }
              }
            }
          }
        }
      },
      "Sts": {
        "Conf": "RJCR"
      }
    }
  }
}