{
  "Document": {
    "CstmrCdtTrfInitn": {
      "GrpHdr": {
        "MsgId": "BETJ911P0V0UP",
        "CreDtTm": "2020-08-27T13:48:38",
        "NbOfTxs": "1",
        "CtrlSum": "100",
        "Authstn": {
          "Prtry": "N"
        },
        "InitgPty": {
          "Nm": "BILL PAY CEU Auto",
          "Id": {
            "OrgId": {
              "Othr": {
                "Id": "10000048"
              }
            }
          }
        }
      },
      "PmtInf": [
        {
          "PmtInfId": "ACHRMTBATCH1",
          "PmtMtd": "TRF",
          "NbOfTxs": "10",
          "CtrlSum": "100",
          "PmtTpInf": {
            "SvcLvl": {
              "Prtry": "REGULAR_PAYMENT"
            },
            "LclInstrm": {
              "Prtry": "BTR"
            }
          },
          "ReqdExctnDt": "2020-08-27",
          "Dbtr": {
            "Nm": "BILL PAY CEU Auto",
            "PstlAdr": {
              "CtryX": "*@"
            },
            "Id": {
              "OrgId": {
                "Othr": {
                  "Id": "1480000002"
                }
              }
            }
          },
          "DbtrAcct": {
            "Id": {
              "Othr": {
                "Id": "2000006"
              }
            },
            "Ccy": "CAD",
            "Nm": "Abi"
          },
          "DbtrAgt": {
            "FinInstnId": {
              "BICFI": "CIBCCATAXXX",
              "Othr": {
                "Id": "0010"
              }
            },
            "BrnchId": {
              "Id": "00021"
            }
          },
          "CdtTrfTxInf": [
            {
              "PmtId": {
                "EndToEndId": "S0MQPDBKDV"
              },
              "Amt": {
                "InstdAmt": {
                  "Ccy": "CAD",
                  "Amt": "100"
                }
              },
              "Cdtr": {
                "Nm": "SAM PVT LTD",
                "PstlAdr": {
                  "Ctry": "CA"
                },
                "CtctDtls": {
                  "EmailAdr": "abc123@bi.com",
                  "Othr": "en",
                  "MobNb": "7798987777"
                }
              },
              "RmtInf": {
                "Ustrd": [
                  "Shubham1",
                  "Shubham2",
                  "Shubham3"
                ]
              },
              "SplmtryData": [
                {
                  "Envlp": {
                    "Cnts": {
                      "StlmMth": "L",
                      "securityQuestion": "SecurityQuestion",
                      "securityAnswer": "SecurityAnswer",
                      "hashType": "SHA256",
                      "hashSalt": "1W",
                      "ProductCd": "DOMESTIC",
                      "DbtrPuId": "Debt123",
                      "PymtExpDt": "2020-12-25T13:59:10.536Z",
                      "ChnlPymtId": "D9KJRCYLMS",
                      "Ccy": "CAD",
                      "DbAmt": "100",
                      "AcctCretDt": "2020-08-15"
                    }
                  }
                }
              ]
            }
          ]
        }
      ],
      "SplmtryData": [
        {
          "Envlp": {
            "Cnts": {
              "ChnlIndctr": "ONLINE",
              "CustIpAddr": "10.123.123.12",
              "CustAuthMtd": "PVQ",
              "AuthTp": "PAYMENT_LEVEL",
              "PANID": "2000000000000001"
            }
          }
        }
      ]
    }
  }
}