{
  "Document": {
    "CstmrPmtStsRpt": {
      "GrpHdr": {
        "MsgId": "PSH29082020280624",
        "CreDtTm": "2020-08-29T13:03:24",
        "InitgPty": {
          "Nm": "CANADIAN IMPERIAL BANK OF COMMERCE",
          "Id": {
            "OrgId": {
              "AnyBIC": "CIBCCAT0"
            }
          }
        }
      },
      "OrgnlGrpInfAndSts": {
        "OrgnlMsgId": "BETVP3L5YVBME",
        "OrgnlMsgNmId": "Pain.001.001.05",
        "GrpSts": "RJCT",
        "StsRsnInf": [
          {
            "AddtlInf": "File Rejected"
          }
        ]
      },
      "OrgnlPmtInfAndSts": {
        "OrgnlPmtInfId": "ACHRMTBATCH1",
        "StsRsnInf": [
          {
            "Rsn": {
              "Cd": "NARR"
            },
            "AddtlInf": "(CdtTrfTxInf-PmtId)-Parsing Failed."
          },
          {
            "Rsn": {
              "Cd": "RF01"
            },
            "AddtlInf": "(CdtTrfTxInf-PmtId-EndToEndId)-Transaction reference is not unique within the message"
          }
        ]
      }
    }
  }
}