{
  "Document": {
    "CstmrPmtStsRpt": {
      "GrpHdr": {
        "MsgId": "PSH28082020277457",
        "CreDtTm": "2020-08-28T00:30:22",
        "InitgPty": {
          "Nm": "CANADIAN IMPERIAL BANK OF COMMERCE",
          "Id": {
            "OrgId": {
              "AnyBIC": "CIBCCAT0"
            }
          }
        }
      },
      "OrgnlGrpInfAndSts": {
        "OrgnlMsgId": "BETHWVEOZJX87",
        "OrgnlMsgNmId": "Pain.001.001.05",
        "GrpSts": "RJCT",
        "StsRsnInf": [
          {
            "AddtlInf": "File Rejected"
          },
          {
            "Rsn": {
              "Cd": "NARR"
            },
            "AddtlInf": "Parsing Failed."
          }
        ]
      },
      "TxInfAndSts": {
        "OrgnlEndToEndId": "AH408PCX54",
        "StsRsnInf": [
          {
            "Rsn": {
              "Cd": "NARR"
            },
            "AddtlInf": "(CdtTrfTxInf-SplmtryData-Envlp-Cnts-PymtExpDt)-Invalid datatype"
          }
        ]
      }
    }
  }
}