{
  "Document": {
    "CstmrPmtCxlReq": {
      "Assgnmt": {
        "Id": "CACNBETSNXPT",
        "Assgnr": {
          "Pty": {
            "Id": {
              "OrgId": {
                "Othr": {
                  "Id": "90000017"
                }
              }
            }
          }
        }
      },
      "Undrlyg": {
        "OrgnlPmtInfAndCxl": {
          "OrgnlPmtInfId": "SAGARxBTCHx25062019x002",
          "TxInf": {
            "CxlId": "Croatia777",
            "OrgnlEndToEndId": "5OIW3PF08Z",
            "CxlRsnInf": {
              "AddtlInf": "DO IT."
            }
          }
        }
      }
    }
  }
}