{
  "Document": {
    "CstmrPmtStsRpt": {
      "GrpHdr": {
        "CreDtTm": "2020-08-27T22:10:02",
        "InitgPty": {
          "Id": {
            "OrgId": {
              "AnyBIC": "CIBCCAT0"
            }
          },
          "Nm": "CANADIAN IMPERIAL BANK OF COMMERCE"
        },
        "MsgId": "PSH27082020277331"
      },
      "OrgnlGrpInfAndSts": {
        "OrgnlMsgId": "BETNNL9QSQRJL",
        "OrgnlMsgNmId": "Pain.001.001.05",
        "StsRsnInf": [
          {
            "AddtlInf": "File Rejected"
          }
        ],
        "GrpSts": "RJCT"
      },
      "OrgnlPmtInfAndSts": {
        "TxInfAndSts": {
          "TxSts": "RJCT",
          "StsRsnInf": {
            "Rsn": {
              "Cd": "NARR"
            },
            "AddtlInf": "Mandatory field not present"
          },
          "OrgnlEndToEndId": "2N5F2Z861P"
        },
        "OrgnlPmtInfId": "ACHRMTBATCH1",
        "PmtInfSts": "RJCT"
      }
    }
  }
}