{
  "Document": {
    "CstmrPmtStsRpt": {
      "GrpHdr": {
        "MsgId": "PSH27082020277373",
        "CreDtTm": "2020-08-27T23:07:38",
        "InitgPty": {
          "Nm": "CANADIAN IMPERIAL BANK OF COMMERCE",
          "Id": {
            "OrgId": {
              "AnyBIC": "CIBCCAT0"
            }
          }
        }
      },
      "OrgnlGrpInfAndSts": {
        "OrgnlMsgId": "BETAAQCYG1SOU",
        "OrgnlMsgNmId": "Pain.001.001.05",
        "GrpSts": "RJCT",
        "StsRsnInf": [
          {
            "AddtlInf": "File Rejected"
          },
          {
            "Rsn": {
              "Cd": "BE21"
            },
            "AddtlInf": "(Document-GrpHdr-InitgPty-NmSEC-Nm)-Missing/Invalid Sending Bank Name"
          }
        ]
      },
      "TxInfAndSts": {
        "OrgnlEndToEndId": "8427HJCBQF",
        "StsRsnInf": [
          {
            "Rsn": {
              "Cd": "NARR"
            },
            "AddtlInf": "(CdtTrfTxInf-Cdtr)-Parsing Failed."
          }
        ]
      }
    }
  }
}